module words-filter

go 1.17

require github.com/antlinker/go-dirtyfilter v1.2.0

require (
	github.com/antlinker/go-cmap v0.0.0-20160407022646-0c5e57012e96 // indirect
	github.com/onsi/ginkgo v1.16.5 // indirect
	github.com/onsi/gomega v1.17.0 // indirect
	gopkg.in/check.v1 v0.0.0-20161208181325-20d25e280405 // indirect
	gopkg.in/mgo.v2 v2.0.0-20190816093944-a6b53ec6cb22 // indirect
	gopkg.in/yaml.v2 v2.4.0 // indirect
)
